<?xml version="1.0" encoding="utf-8"?>
<!-- Generator: Adobe Illustrator 16.0.0, SVG Export Plug-In . SVG Version: 6.00 Build 0)  -->
<!DOCTYPE svg PUBLIC "-//W3C//DTD SVG 1.1//EN" "http://www.w3.org/Graphics/SVG/1.1/DTD/svg11.dtd">
<svg version="1.1" id="Layer_1" xmlns="http://www.w3.org/2000/svg" xmlns:xlink="http://www.w3.org/1999/xlink" x="0px" y="0px"
	 width="292.886px" height="272px" viewBox="329.467 0 292.886 272" enable-background="new 329.467 0 292.886 272"
	 xml:space="preserve">
<path fill="#FFFFFF" d="M621.869,80.879c-4.271-47.055-37.586-81.194-79.264-81.194c-27.771,0-53.2,14.94-67.501,38.894
	c-14.177-24.263-38.559-38.903-65.893-38.903c-41.671,0-74.992,34.144-79.256,81.199c-0.34,2.078-1.725,13.018,2.495,30.855
	c6.059,25.732,20.093,49.133,40.544,67.671L475.033,272l103.79-92.6c20.45-18.538,34.483-41.934,40.543-67.671
	C623.586,93.897,622.201,82.958,621.869,80.879z"/>
<path d="M475.104,38.579c-12.555-21.487-33.115-35.418-56.64-38.327h-18.368c-37.33,4.58-66.193,37.056-70.141,80.623
	c-0.048,0.294-0.117,0.784-0.188,1.426h292.286c-0.07-0.64-0.138-1.129-0.185-1.422c-3.957-43.594-32.85-76.081-70.218-80.627
	h-18.303C509.264,3.166,487.799,17.315,475.104,38.579z"/>
<path fill="#BB0000" d="M329.81,95.699c0.391,4.458,1.171,9.814,2.642,16.03c5.882,24.98,19.298,47.749,38.785,66.019h209.346
	c19.486-18.27,32.901-41.034,38.784-66.019c1.471-6.216,2.251-11.573,2.643-16.03H329.81z"/>
<polygon fill="#006600" points="475.033,272 565.038,191.699 386.548,191.699 "/>
</svg>
