<?xml version="1.0" standalone="no"?>
<!DOCTYPE svg PUBLIC "-//W3C//DTD SVG 20010904//EN"
 "http://www.w3.org/TR/2001/REC-SVG-20010904/DTD/svg10.dtd">
<svg version="1.0" xmlns="http://www.w3.org/2000/svg"
 width="700.000000pt" height="700.000000pt" viewBox="0 0 700.000000 700.000000"
 preserveAspectRatio="xMidYMid meet">
<metadata>
Created by potrace 1.11, written by Peter Selinger 2001-2013
</metadata>
<g transform="translate(0.000000,700.000000) scale(0.100000,-0.100000)"
fill="#000000" stroke="none">
<path d="M3297 6334 c-1 -1 -49 -4 -107 -8 -177 -11 -367 -39 -545 -80 -225
-52 -438 -130 -640 -235 -642 -332 -1025 -854 -1090 -1486 -7 -64 -7 -370 -1
-413 3 -18 8 -52 11 -75 25 -183 81 -361 166 -532 64 -129 69 -136 114 -205
245 -370 691 -641 1305 -796 116 -29 107 -27 206 -48 39 -8 144 -31 235 -51
90 -20 173 -38 183 -41 11 -2 63 -12 115 -23 53 -11 110 -22 126 -25 17 -3 41
-8 55 -11 91 -20 121 -26 165 -34 216 -39 587 -146 723 -208 78 -35 182 -103
220 -144 131 -139 68 -403 -123 -514 -63 -37 -345 -109 -505 -129 -164 -21
-474 -27 -615 -13 -90 9 -242 47 -331 82 -63 26 -222 109 -234 124 -3 3 -31
26 -63 50 -31 24 -97 87 -145 139 -134 146 -207 194 -337 217 -43 7 -1269 7
-1310 -1 -44 -8 -111 -66 -131 -113 -15 -33 -20 -143 -10 -180 3 -9 7 -38 11
-66 31 -249 203 -579 421 -805 l43 -45 2327 0 2326 1 29 34 c61 72 179 258
223 350 77 163 131 355 151 535 12 107 6 387 -10 507 -67 511 -285 867 -703
1152 -264 180 -717 351 -1178 445 -54 11 -139 29 -189 40 -49 10 -103 21 -120
24 -16 3 -64 12 -105 21 -41 8 -86 17 -100 20 -14 3 -36 8 -50 11 -14 3 -45
10 -70 15 -25 5 -89 18 -144 30 -54 12 -106 23 -115 25 -26 6 -155 35 -171 39
-76 19 -123 33 -235 68 -169 53 -236 81 -315 133 -84 55 -125 97 -158 160 -22
43 -26 63 -26 145 -1 82 3 103 25 151 68 144 263 254 504 284 28 4 57 8 65 11
27 7 201 16 300 16 278 -2 489 -63 688 -197 39 -25 107 -85 152 -131 124 -129
193 -172 320 -201 8 -1 306 -3 662 -3 707 -1 691 -2 743 57 60 68 69 130 40
278 -25 133 -40 178 -101 310 -34 74 -143 251 -175 285 -8 8 -33 40 -56 70
-78 102 -233 253 -369 360 -36 29 -263 180 -269 180 -4 0 -19 9 -34 19 -27 19
-251 134 -321 164 -149 65 -368 137 -520 172 -86 20 -204 44 -240 49 -25 3
-56 8 -70 10 -14 3 -52 7 -85 10 -33 3 -86 8 -118 12 -49 5 -414 12 -420 8z"/>
</g>
</svg>
